\relax 
\@input{titlepage.aux}
\@writefile{toc}{\contentsline {section}{\numberline {1}Assignment 7}{1}}
\@writefile{toc}{\contentsline {subsection}{\numberline {1.1}Problem Statement}{1}}
\@writefile{toc}{\contentsline {subsection}{\numberline {1.2}Abstract}{1}}
\@writefile{toc}{\contentsline {subsection}{\numberline {1.3}Specifications and Assumptions}{1}}
\@writefile{toc}{\contentsline {subsection}{\numberline {1.4}Logic Implementation}{1}}
\@writefile{toc}{\contentsline {subsection}{\numberline {1.5}Execution Directives}{2}}
\@writefile{toc}{\contentsline {subsection}{\numberline {1.6}Output of the program}{2}}
\@writefile{toc}{\contentsline {subsection}{\numberline {1.7}Result}{2}}
