\relax 
\@input{titlepage.aux}
\@writefile{toc}{\contentsline {section}{\numberline {1}Problem 1}{1}}
\@writefile{toc}{\contentsline {subsection}{\numberline {1.1}Problem Statement}{1}}
\@writefile{toc}{\contentsline {subsection}{\numberline {1.2}Abstract}{1}}
\@writefile{toc}{\contentsline {subsection}{\numberline {1.3}Specifications and Assumptions}{1}}
\@writefile{toc}{\contentsline {subsection}{\numberline {1.4}Logic Implementation}{1}}
\@writefile{toc}{\contentsline {subsection}{\numberline {1.5}Flow Chart}{1}}
\@writefile{toc}{\contentsline {subsection}{\numberline {1.6}Execution Directives}{1}}
\@writefile{toc}{\contentsline {subsection}{\numberline {1.7}Output of the program}{2}}
\@writefile{toc}{\contentsline {subsection}{\numberline {1.8}Result}{2}}
\@writefile{toc}{\contentsline {subsection}{\numberline {1.9}Conclusion}{2}}
\@writefile{toc}{\contentsline {section}{\numberline {2}Problem 2}{2}}
\@writefile{toc}{\contentsline {subsection}{\numberline {2.1}Problem Statement}{2}}
\@writefile{toc}{\contentsline {subsection}{\numberline {2.2}Abstract}{3}}
\@writefile{toc}{\contentsline {subsection}{\numberline {2.3}Specifications and Assumptions}{3}}
\@writefile{toc}{\contentsline {subsection}{\numberline {2.4}Logic Implementation}{3}}
\@writefile{toc}{\contentsline {subsection}{\numberline {2.5}Flow Chart}{3}}
\@writefile{toc}{\contentsline {subsection}{\numberline {2.6}Execution Directives}{4}}
\@writefile{toc}{\contentsline {subsection}{\numberline {2.7}Output of the program}{4}}
\@writefile{toc}{\contentsline {subsection}{\numberline {2.8}Result}{5}}
\@writefile{toc}{\contentsline {subsection}{\numberline {2.9}Conclusion}{5}}
