\relax 
\@input{titlepage.aux}
\@writefile{toc}{\contentsline {section}{\numberline {1}Assignment 10}{1}}
\@writefile{toc}{\contentsline {subsection}{\numberline {1.1}Problem Statement}{1}}
\@writefile{toc}{\contentsline {subsection}{\numberline {1.2}Abstract}{1}}
\@writefile{toc}{\contentsline {subsection}{\numberline {1.3}Specifications and Assumptions}{1}}
\@writefile{toc}{\contentsline {subsection}{\numberline {1.4}Flow Chart}{2}}
\@writefile{toc}{\contentsline {subsection}{\numberline {1.5}Logic Implementation}{3}}
\@writefile{toc}{\contentsline {subsection}{\numberline {1.6}Execution Directives}{3}}
\@writefile{toc}{\contentsline {subsection}{\numberline {1.7}Output of the program}{4}}
\@writefile{toc}{\contentsline {subsection}{\numberline {1.8}Conclusion}{5}}
