\relax 
\@input{titlepage.aux}
\@writefile{toc}{\contentsline {section}{\numberline {1}Assignment 4}{1}}
\@writefile{toc}{\contentsline {subsection}{\numberline {1.1}Problem Statement}{1}}
\@writefile{toc}{\contentsline {subsection}{\numberline {1.2}Abstract}{1}}
\@writefile{toc}{\contentsline {subsection}{\numberline {1.3}Specifications and Assumptions}{1}}
\@writefile{toc}{\contentsline {subsection}{\numberline {1.4}Flow Chart}{1}}
\@writefile{toc}{\contentsline {subsection}{\numberline {1.5}Logic Implementation}{2}}
\@writefile{toc}{\contentsline {subsection}{\numberline {1.6}Execution Directives}{2}}
\@writefile{toc}{\contentsline {subsection}{\numberline {1.7}Output of the program}{3}}
\@writefile{toc}{\contentsline {subsection}{\numberline {1.8}Result}{4}}
\@writefile{toc}{\contentsline {subsection}{\numberline {1.9}Conclusion}{4}}
